…
    ## `summarise()` has grouped output by 'round'. You can override using the `.groups` argument.

    ## # A tibble: 63 x 4
    ##    round team       wins  rank
    ##    <dbl> <chr>     <dbl> <int>
    ##  1     1 Kansas    85308     1
    ##  2     1 Gonzaga   81351     2
    ##  3     1 Arizona   79077     3
    ##  4     1 Kentucky  78857     4
    ##  5     1 Duke      77774     5
    ##  6     1 Purdue    77116     6
    ##  7     1 Wisconsin 75459     7
    ##  8     1 Auburn    74485     8
    ##  9     1 Baylor    73813     9
    ## 10     1 Villanova 72791    10
    ## # ... with 53 more rows
``` r
# Compute head to head probabilities from simulation
res_df %>% 
  mutate(opp_outcome = if_else(outcome == 1, 0, 1),
         team_a = if_else(team > opp, team, opp),
         team_b = if_else(team > opp, opp, team),
         outcome_a = if_else(team > opp, outcome, opp_outcome)) %>% 
  select(trials, round, team_a, team_b, outcome_a) %>% 
  count(round, team_a, team_b, outcome_a) %>% 
  mutate(outcome_a = if_else(outcome_a == 1, "win", "loss")) %>% 
  pivot_wider(names_from = outcome_a, values_from = n, values_fill = 0) %>% 
  mutate(win_prob = win / (win + loss)) 
```

    ## # A tibble: 1,991 x 6
    ##    round team_a             team_b          loss   win win_prob
    ##    <dbl> <chr>              <chr>          <int> <int>    <dbl>
    ##  1     1 Bryant             Arizona        79077 20923    0.209
    ##  2     1 Duke               CSU Fullerton  22226 77774    0.778
    ##  3     1 Gonzaga            Georgia State  18649 81351    0.814
    ##  4     1 Illinois           Chattanooga    49093 50907    0.509
    ##  5     1 Jacksonville State Auburn         74485 25515    0.255
    ##  6     1 LSU                Iowa State     53965 46035    0.460
    ##  7     1 Memphis            Boise State    63174 36826    0.368
    ##  8     1 Michigan           Colorado State 65670 34330    0.343
    ##  9     1 Michigan State     Davidson       58667 41333    0.413
    ## 10     1 Norfolk State      Baylor         73813 26187    0.262
    ## # ... with 1,981 more rows
…
  select(team) %>% 
  print() %>%
  mutate(game = rep(c(1, 0), n() / 2),
         game = cumsum(game),
         type = rep(c("team_1", "team_2"), n() / 2)) %>% 
  pivot_wider(names_from = type, values_from = team) %>% 
  mutate(team_a = if_else(`team_1` > `team_2`, `team_1`, `team_2`),
         team_b = if_else(`team_1` > `team_2`, `team_2`, `team_1`)) %>% 
  select(game, team_a, team_b) %>% 
  left_join(bracket_df, by = c("team_a", "team_b")) %>% 
  mutate(team = if_else(outcome == 1, team_a, team_b)) %>% 
  select(team)
```

    ## # A tibble: 32 x 1
    ##    team          
    ##    <chr>         
    ##  1 Gonzaga       
    ##  2 Boise State   
    ##  3 UConn         
    ##  4 Arkansas      
    ##  5 Alabama       
    ##  6 Texas Tech    
    ##  7 Davidson      
    ##  8 Duke          
    ##  9 Baylor        
    ## 10 North Carolina
    ## # ... with 22 more rows
…
